700 407 145
713 550 171
569 570 106
53 974 179
676 437 145
882 310 179
721 453 171
927 398 179
785 37 171
700 658 145
768 699 171
208 208 14
364 492 142
456 556 142
800 485 171
163 254 128
636 999 179
77 982 179
785 417 171
229 8 125
539 91 144
537 832 171
12 991 179
866 649 171
221 167 125
381 691 145
290 145 128
984 551 179
211 506 144
372 196 144
769 470 171
33 24 112
734 817 153
311 662 145
487 964 179
23 840 171
909 509 179
806 105 171
752 645 171
146 855 171
486 895 179
295 7 128
237 892 179
189 195 120
712 988 179
927 339 179
146 298 128
479 459 129
184 852 171
536 121 144
5678 8284 262
1431 1428 35
8810 5424 262
5851 17 238
854 2172 182
126 7490 262
4395 2893 238
7809 6891 257
457 1603 182
8224 9209 247
7213 2687 262
1513 1418 172
5439 6692 262
8050 4454 262
7364 6224 257
8683 1233 262
6999 2957 262
756 9478 262
1278 8861 262
9647 9464 198
7544 9801 260
534 1104 179
987 9431 262
9907 5245 262
8995 5879 262
5242 6855 262
9670 1939 262
9988 4215 262
166 2620 209
4643 9851 262
7236 3039 262
7976 4430 262
3485 2121 217
509 1865 182
3041 2101 217
5211 7657 262
9353 3138 262
3876 8643 262
8786 3230 262
7364 4997 262
434 4379 238
2928 496 217
4871 8829 262
8435 6235 257
693 1892 182
7428 3247 262
2983 6204 262
6590 1078 262
6091 3006 238
1040 3319 217
41980 49489 314
82335 81832 289
95398 40299 351
15187 95398 351
7521 72934 340
48813 25994 324
22356 78951 351
74841 71001 325
16331 55481 340
68980 33885 340
26587 35137 311
95915 29755 351
89355 68661 351
62805 6964 340
53366 64573 335
92196 31171 351
18174 98821 351
740 48537 324
41565 17755 324
19159 8537 279
1108 3787 238
84801 26354 351
28330 74596 340
45117 31136 324
94700 37912 351
94049 71758 351
57691 31999 340
46290 99579 351
194 4935 238
42834 68665 340
40588 51240 314
15624 38200 324
97759 83458 333
30852 21834 308
8214 77231 351
84978 33400 351
13021 70986 340
75483 27362 340
4494 17229 276
52081 24757 324
61104 27282 340
98365 40734 351
27012 8595 308
6428 62266 340
46001 86079 351
67317 87551 351
38527 2656 324
60703 40137 340
99555 76222 351
77624 71474 351
683396 945581 525
33003 120001 354
934877 346495 525
379217 448504 449
743604 61475 509
975423 456662 525
64578 522153 470
881818 901203 445
167771 836865 509
698174 689343 442
596614 515437 452
969623 27261 525
142882 654077 509
103340 94728 341
544210 986435 525
357150 222937 443
272722 770170 509
143777 898059 525
576012 179823 470
109192 206813 383
856331 192514 525
5809 405339 443
365716 37252 443
591129 39632 470
323009 657549 509
177209 590456 470
878545 650041 525
859071 356681 525
916308 176809 525
337070 601514 470
954088 196323 525
915987 116137 525
711587 267286 509
770610 830935 468
567109 683998 509
234420 30992 443
696159 940333 525
764956 754382 380
961336 205817 525
566689 935197 525
898593 886428 445
675991 413426 509
387104 542321 470
991209 190232 525
145421 254011 443
971043 320296 525
67459 555376 470
552024 201425 470
779612 139557 509
447130 826393 509
