450125 978222 525
151699 76023 375
550624 791257 509
24605 867373 525
706489 587229 509
668890 591139 509
96876 782237 509
311619 513301 470
942602 653848 525
940792 518134 525
466646 900245 525
132499 449866 449
342817 174389 443
670558 415823 509
998604 692590 525
349751 817679 509
134077 88565 354
966667 234485 525
113200 727548 509
85641 908021 525
595840 569167 434
140879 425688 449
145966 964754 525
900263 368588 525
627042 710698 504
971519 608529 525
594774 667236 509
334650 196103 443
762075 259180 509
720304 293147 509
856576 748919 525
580867 614524 434
446257 565821 470
175248 513760 470
789772 98012 509
423413 669413 509
710079 80957 509
899087 803340 525
293285 400405 441
778049 604998 509
649528 755483 504
289498 562840 470
544657 16638 470
175874 151194 383
374850 477167 449
228294 306445 443
219366 519698 470
98679 927970 525
83868 408800 443
85627 670239 509
814061 405968 509
904642 599287 525
978487 848875 507
365206 32661 443
275850 998090 525
874069 555694 525
2146 827038 509
890387 720697 525
20683 658959 509
848747 782496 525
942492 378500 525
391991 866339 525
218785 140669 386
9041 646825 509
274447 303098 389
810073 948354 525
187529 268082 443
130441 788816 509
866068 166970 525
295708 92231 443
552209 133488 470
277478 776628 509
342538 530405 470
919043 413482 525
662051 863336 525
44585 794621 509
872992 261950 525
614592 302535 470
261519 397757 441
99598 575770 470
912864 68414 525
345007 10964 443
295628 14315 443
692587 201468 509
120025 571471 470
350771 691789 509
571667 914908 525
204131 651208 509
25071 648421 509
73027 92962 351
657395 930423 525
40917 368551 443
373642 695381 509
565065 89753 470
396694 516362 470
185944 130143 383
218266 768067 509
440286 379299 449
298176 45457 443
970267 406522 525
308017 648357 509
635709 464303 509
303172 554873 470
957562 950181 414
561998 269256 470
428778 888442 525
476394 870732 525
36389 364019 443
998312 431033 525
680714 199550 509
961469 69688 525
161081 460969 449
83740 552567 470
212808 586164 470
794378 349848 509
835573 338121 509
361691 838158 525
608140 93121 470
364120 185207 443
928729 235848 525
535239 168103 470
839308 528464 525
101536 539925 470
257653 239366 368
474266 422766 444
111606 499676 449
52430 849549 525
17070 328079 443
330314 824326 509
751855 72477 509
758666 777363 468
61105 455530 449
517055 499212 470
420904 900755 525
646280 299368 509
433313 720089 509
482987 946985 525
741032 783868 468
573289 345024 470
71603 759948 509
824257 725097 468
695376 635671 442
175578 99794 383
652108 465625 509
156469 320799 443
492701 420366 444
710910 314235 509
474854 288262 449
450380 579062 470
632459 980973 525
408020 904410 525
985554 749503 525
409541 344249 441
318401 115301 443
792302 226469 509
336757 990315 525
472209 880478 525
620695 177062 470
997507 545780 525
673093 316118 509
890567 96727 525
784266 76459 509
295813 259501 407
407630 725 443
797500 110926 509
543223 144707 470
945064 655620 525
242473 614213 470
69141 741269 509
385950 176729 443
173928 926984 525
195909 233580 443
438506 432809 387
797031 76630 509
868090 303158 525
862440 690300 525
434781 807499 509
754669 82338 509
669785 794517 504
713844 428185 509
147527 849436 525
75639 445510 449
111505 261608 443
413302 983914 525
108156 415953 449
616036 116856 470
55730 925107 525
227695 415565 449
628464 622348 509
790778 187762 509
942110 935256 507
630358 593680 509
667672 564892 509
351343 230248 443
413810 11549 449
588293 141405 470
124091 17253 354
253729 36094 443
713273 907123 525
583127 94413 470
425234 179296 449
905812 659152 525
916004 101482 525
654858 391963 509
57225 967162 525
956330 339184 525
845731 136415 525
264416 935026 525
769663 675717 504
769405 687284 504
42418 818547 509
547364 667465 509
991551 830972 525
181767 670976 509
235967 718433 509
956056 718586 525
836585 906065 525
9663 415805 449
112774 12051 354
362768 104180 443
209040 722755 509
630985 260597 509
977180 384735 525
369215 415435 449
101705 243152 443
514254 933215 525
934913 269815 525
291417 159113 443
853962 464158 525
884958 493044 525
649959 321740 509
823682 649423 504
403966 922748 525
304230 714069 509
16925 519214 470
786630 284956 509
751685 579898 509
553461 367544 470
822379 312755 509
718273 719378 336
772714 706980 468
764661 474738 509
861342 87711 525
55397 604963 470
578281 579827 359
203655 511525 449
251461 18481 443
705338 615248 509
38592 614994 470
966568 183330 525
